912798 935304 476
115686 778457 509
945056 976069 458
975650 998725 440
211654 228791 386
707270 828024 468
955737 987778 458
602536 783396 509
373715 474726 449
975003 981479 427
507289 947482 525
132634 957422 525
114112 382748 443
322286 380235 441
58996 622946 470
881579 978623 507
631818 807534 504
276286 992323 525
468797 870708 525
50001 450636 449
430564 924783 525
967744 969769 352
873447 909032 445
796260 987016 525
239679 877415 525
231207 623884 470
787716 890431 525
454992 886566 525
585614 610786 403
688965 794752 504
598445 880935 525
889757 940581 507
814955 967948 525
431971 439224 400
879206 986264 507
218051 714021 509
619684 956249 525
161026 755375 509
201364 255810 443
396988 423988 449
365489 601487 470
901516 910459 476
367322 979364 525
407910 681737 509
773886 927392 525
654973 904192 525
241723 351053 441
28218 638183 509
758948 838942 525
600748 808872 509
606399 777577 509
428707 510602 444
469419 585435 470
711073 973052 525
714842 890836 525
84682 630027 509
836986 958310 525
892800 949063 507
471980 743121 509
739132 849522 525
181505 792683 509
19090 707586 509
415038 994215 525
406254 585181 470
673945 757340 504
464335 474004 413
921271 965216 507
653602 676766 442
707850 832307 468
5602 648600 509
318341 682698 509
651138 806776 504
480081 597917 470
203866 485126 449
823127 994428 525
725475 755871 424
331637 812915 509
628334 739766 504
484746 893159 525
407591 898250 525
649325 653222 385
537115 558816 452
557568 957325 525
212287 785846 509
379057 502550 449
877541 926565 476
980000 982606 427
637683 982656 525
451574 952639 525
719404 998779 525
884832 919124 476
123025 306160 443
671358 760195 504
484405 878847 525
316913 891184 525
953082 953169 246
869516 911387 476
585074 867868 525
583952 865807 525
347428 707191 509
371439 583690 470
336474 618588 470
916207 941222 507
222872 749546 509
79979 548730 470
253935 899121 525
360869 538671 470
367327 473946 449
724968 967763 525
100129 551094 470
86892 694665 509
13404 404141 443
79820 659205 509
294750 481672 449
526076 982400 525
50002 246594 443
196032 979844 525
550083 691946 509
26171 655863 509
360178 585651 470
956339 972246 458
845750 958527 507
941788 967437 414
23586 979258 525
497320 852005 525
105908 323439 443
338888 865138 525
371754 967309 525
302229 835747 509
192178 514351 470
738652 813536 468
134490 140984 344
14834 63048 340
75598 818350 509
576489 947298 525
165694 231820 443
275050 826219 509
300864 536460 470
301981 484931 449
486860 582752 470
127135 692883 509
106159 539517 470
295533 832842 509
636542 924082 525
801245 969552 525
811835 846092 525
27522 451962 449
564074 805076 509
919118 921336 432
341237 876708 525
135719 489852 449
555824 908046 525
424677 682173 509
986953 990355 396
346757 744187 509
932256 943713 507
790322 943362 525
785765 818769 468
417453 623458 470
504089 671893 509
299705 616399 470
115584 735512 509
521730 774840 509
25833 635420 509
457761 935553 525
377655 849756 525
758947 825669 468
134978 972175 525
828782 902525 525
877303 881125 401
709410 833285 468
515122 830859 509
853302 952880 507
266514 663372 509
212840 306183 443
271321 719408 509
444596 457337 387
161623 805413 509
795586 862513 525
755938 838283 525
415558 595286 470
799390 819414 450
422363 559548 470
333270 717115 509
36735 41137 306
844758 921081 476
498289 842458 525
821247 906798 525
276324 840889 525
713553 849444 525
297022 384370 441
598463 936299 525
522881 774898 509
23425 912938 525
240747 853439 525
614843 816238 509
841542 873913 432
36305 172459 383
707825 756218 424
794213 854739 525
64542 102534 351
205661 534879 470
293870 698852 509
567055 843028 525
266790 981695 525
191824 796280 509
702032 987796 525
521736 649238 509
427312 642436 509
958688 983991 458
688275 992078 525
412488 639733 509
327311 591760 470
815035 830775 450
737435 915434 525
12410 964633 525
985660 993159 396
513799 691274 509
395825 959581 525
549797 785984 509
182571 353510 443
772516 953929 525
436180 993195 525
716054 787313 468
872256 945368 507
828278 965570 525
280718 953314 525
483488 689364 509
535342 811007 509
890433 926867 476
358104 367001 410
221256 453843 449
771821 848110 525
604352 927263 525
320092 972470 525
847752 919092 476
685328 695131 442
889508 958861 507
293622 899271 525
7715 602248 470
859514 878616 432
765175 901818 525
594173 678923 509
512332 726039 509
977311 991949 427
27015 61795 340
576127 646330 509
530628 924884 525
383850 564196 470
887837 945301 507